<?xml version="1.0" encoding="utf-8"?>
<svg width="80px" height="73px" viewBox="0 0 80 73" version="1.1" xmlns:xlink="http://www.w3.org/1999/xlink" xmlns="http://www.w3.org/2000/svg">
  <desc>Created with Lunacy</desc>
  <g id="Group-9">
    <path d="M0 0L80 0L80 73L0 73L0 0Z" id="Rectangle-Copy-5" fill="#952361" stroke="none" />
    <path d="M32.229 12.4008L5.13902 12.4008L15.155 2.57081C15.746 1.98981 15.755 1.04081 15.175 0.448813C14.593 -0.142187 13.644 -0.150187 13.053 0.428813L0.449019 12.7988C0.163019 13.0798 0.00101876 13.4628 1.87586e-05 13.8628C-0.00198124 14.2628 0.156019 14.6478 0.439019 14.9308L13.064 27.5558C13.357 27.8488 13.741 27.9948 14.125 27.9948C14.508 27.9948 14.892 27.8488 15.185 27.5558C15.771 26.9698 15.771 26.0198 15.185 25.4348L5.15102 15.4008L32.229 15.4008C33.057 15.4008 33.729 14.7288 33.729 13.9008C33.729 13.0718 33.057 12.4008 32.229 12.4008" transform="matrix(-4.371139E-08 -1 1 -4.371139E-08 26.86707 52.86182)" id="1A" fill="#E8EB9B" stroke="none" />
  </g>
</svg>