<svg xmlns="http://www.w3.org/2000/svg" width="62" height="46" viewBox="0 0 62 46">
  <path fill="#952361" fill-rule="evenodd" d="M721.732,30.03 L718.667,30.03 C717.838,30.03 717.167,30.7 717.167,31.53 L717.167,35.96 L710.65,30.39 C710.63,30.38 710.608,30.37 710.588,30.35 C710.544,30.32 710.499,30.28 710.45,30.25 C710.412,30.23 710.374,30.21 710.334,30.19 C710.287,30.17 710.239,30.15 710.189,30.13 C710.146,30.11 710.102,30.1 710.057,30.09 C710.008,30.07 709.96,30.06 709.909,30.06 C709.86,30.05 709.812,30.04 709.763,30.04 C709.733,30.04 709.705,30.03 709.675,30.03 L702.5,30.03 L702.5,20.49 C702.5,18.67 700.929,17.2 699,17.2 L695.029,17.2 L695.019,12.05 C695.026,12.04 695.074,12 695.166,12 L721.732,12 C721.817,12 721.866,12.04 721.868,12.01 L721.88,29.98 C721.872,29.99 721.824,30.03 721.732,30.03 Z M699.5,41.89 C699.5,41.99 699.305,42.17 699,42.17 L681.25,42.17 C681.226,42.17 681.205,42.18 681.182,42.18 C681.128,42.18 681.074,42.19 681.02,42.19 C680.974,42.2 680.929,42.21 680.884,42.22 C680.836,42.23 680.789,42.25 680.742,42.27 C680.695,42.28 680.649,42.3 680.605,42.32 C680.564,42.34 680.524,42.36 680.483,42.39 C680.437,42.42 680.392,42.45 680.348,42.48 C680.33,42.49 680.31,42.5 680.292,42.52 L671.75,49.6 L671.75,43.67 C671.75,42.84 671.078,42.17 670.25,42.17 L666.5,42.17 C666.194,42.17 666,41.99 666,41.89 L666,20.49 C666,20.39 666.194,20.2 666.5,20.2 L699,20.2 C699.305,20.2 699.5,20.39 699.5,20.49 L699.5,41.89 Z M721.732,9 L695.166,9 C693.437,9 692.031,10.34 692.031,12 L692.031,17.2 L666.5,17.2 C664.57,17.2 663,18.67 663,20.49 L663,41.89 C663,43.7 664.57,45.17 666.5,45.17 L668.75,45.17 L668.75,52.8 C668.75,53.38 669.086,53.91 669.612,54.15 C669.815,54.25 670.033,54.3 670.249,54.3 C670.593,54.3 670.933,54.18 671.207,53.95 L681.791,45.17 L699,45.17 C700.929,45.17 702.5,43.7 702.5,41.89 L702.5,33.03 L709.122,33.03 L717.692,40.36 C717.969,40.6 718.316,40.72 718.668,40.72 C718.88,40.72 719.094,40.67 719.295,40.58 C719.826,40.34 720.167,39.81 720.167,39.22 L720.167,33.03 L721.732,33.03 C723.461,33.03 724.868,31.69 724.868,30.03 L724.868,12 C724.868,10.34 723.461,9 721.732,9 L721.732,9 Z" transform="translate(-663 -9)"/>
</svg>
